Port:Term1  a 0 Num=1 Z=50 Ohm Noise=yes 
C:C1  a 0 C=1.0 pF 
L:L1  a b L=1.0 nH 
C:C2  b 0 C=1.0 pF 
Port:Term2  b 0 Num=2 Z=50 Ohm Noise=yes 

S_Param:SP1 CalcS=yes SweepVar="freq" SweepPlan="SP1_stim" 
SweepPlan: SP1_stim Start=1.0 GHz Stop=10.0 GHz Step=10 MHz 
